{
    "name": "0ad-deps-vcpkg",
    "version-string": "latest",
    "dependencies": [
        "wxwidgets",
        "boost-filesystem",
        "boost-system",
        "curl",
        "enet",
        "fmt",
        "freetype",
        "icu",
        "libiconv",
        "libogg",
        "libpng",
        "libsodium",
        "libvorbis",
        "libxml2",
        "miniupnpc",
        "openal-soft",
        "zlib"
    ]
}
